{
    "Description": {
        "Cost": 5800000,
        "Rarity": 3,
        "Purchasable": true,
        "Manufacturer": "",
        "Model": "",
        "UIName": "Catapult",
        "Id": "chassisdef_catapult_CPLT-C7",
        "Name": "Catapult",
        "Details": "The C7 variant of the Catapult is dangerous at all ranges. It carries enough missiles to hammer the enemy from afar, and its bank of energy weapons is unmatched.",
        "Icon": "uixTxrIcon_catapult"
    },
    "MovementCapDefID": "movedef_catapult_CPLT-C7",
    "PathingCapDefID": "pathingdef_heavy",
    "HardpointDataDefID": "hardpointdatadef_catapult",
    "PrefabIdentifier": "chrPrfMech_catapultBase-001",
    "PrefabBase": "catapult",
    "Tonnage": 999,
    "InitialTonnage": 26,
    "weightClass": "HEAVY",
    "BattleValue": 7144000,
    "Heatsinks": 0,
    "TopSpeed": 64,
    "TurnRadius": 90,
    "MaxJumpjets": 8,
    "Stability": 100,
    "StabilityDefenses": [
        0,
        0,
        0,
        0,
        0,
        0
    ],
    "SpotterDistanceMultiplier": 1,
    "VisibilityMultiplier": 1,
    "SensorRangeMultiplier": 1,
    "Signature": 0,
    "Radius": 8,
    "PunchesWithLeftArm": false,
    "MeleeDamage": 60,
    "MeleeInstability": 65,
    "MeleeToHitModifier": 0,
    "DFADamage": 80,
    "DFAToHitModifier": 0,
    "DFASelfDamage": 80,
    "DFAInstability": 80,
    "Locations": [
        {
            "Location": "Head",
            "Hardpoints": [],
            "Tonnage": 0,
            "InventorySlots": 1,
            "MaxArmor": 100,
            "MaxRearArmor": -1,
            "InternalStructure": 100
        },
        {
            "Location": "LeftArm",
            "Hardpoints": [
                {
                    "WeaponMount": "Missile",
                    "Omni": false
                },
                {
                    "WeaponMount": "Missile",
                    "Omni": false
                },
                {
                    "WeaponMount": "Missile",
                    "Omni": false
                },
                {
                    "WeaponMount": "Missile",
                    "Omni": false
                }
            ],
            "Tonnage": 0,
            "InventorySlots": 16,
            "MaxArmor": 200,
            "MaxRearArmor": -1,
            "InternalStructure": 100
        },
        {
            "Location": "LeftTorso",
            "Hardpoints": [
                {
                    "WeaponMount": "Energy",
                    "Omni": false
                },                {
                    "WeaponMount": "Energy",
                    "Omni": false
                },                {
                    "WeaponMount": "Energy",
                    "Omni": false
                },                {
                    "WeaponMount": "Energy",
                    "Omni": false
                },                {
                    "WeaponMount": "Energy",
                    "Omni": false
                },                {
                    "WeaponMount": "Energy",
                    "Omni": false
                },
                {
                    "WeaponMount": "AntiPersonnel",
                    "Omni": false
                }
            ],
            "Tonnage": 0,
            "InventorySlots": 10,
            "MaxArmor": 300,
            "MaxRearArmor": 150,
            "InternalStructure": 150
        },
        {
            "Location": "CenterTorso",
            "Hardpoints": [
                {
                    "WeaponMount": "Energy",
                    "Omni": false
                },                {
                    "WeaponMount": "Energy",
                    "Omni": false
                },                {
                    "WeaponMount": "Energy",
                    "Omni": false
                },                {
                    "WeaponMount": "Energy",
                    "Omni": false
                }
            ],
            "Tonnage": 0,
            "InventorySlots": 4,
            "MaxArmor": 420,
            "MaxRearArmor": 210,
            "InternalStructure": 210
        },
        {
            "Location": "RightTorso",
            "Hardpoints": [
                {
                    "WeaponMount": "Energy",
                    "Omni": false
                },                {
                    "WeaponMount": "Energy",
                    "Omni": false
                },                {
                    "WeaponMount": "Energy",
                    "Omni": false
                },                {
                    "WeaponMount": "Energy",
                    "Omni": false
                },
                {
                    "WeaponMount": "AntiPersonnel",
                    "Omni": false
                }
            ],
            "Tonnage": 0,
            "InventorySlots": 10,
            "MaxArmor": 150,
            "MaxRearArmor": 75,
            "InternalStructure": 75
        },
        {
            "Location": "RightArm",
            "Hardpoints": [
                {
                    "WeaponMount": "Missile",
                    "Omni": false
                },
                {
                    "WeaponMount": "Missile",
                    "Omni": false
                },
                {
                    "WeaponMount": "Missile",
                    "Omni": false
                },
                {
                    "WeaponMount": "Missile",
                    "Omni": false
                }
            ],
            "Tonnage": 0,
            "InventorySlots": 16,
            "MaxArmor": 200,
            "MaxRearArmor": -1,
            "InternalStructure": 100
        },
        {
            "Location": "LeftLeg",
            "Hardpoints": [],
            "Tonnage": 0,
            "InventorySlots": 8,
            "MaxArmor": 300,
            "MaxRearArmor": -1,
            "InternalStructure": 150
        },
        {
            "Location": "RightLeg",
            "Hardpoints": [],
            "Tonnage": 0,
            "InventorySlots": 8,
            "MaxArmor": 300,
            "MaxRearArmor": -1,
            "InternalStructure": 150
        }
    ],
    "LOSSourcePositions": [
        {
            "x": 0,
            "y": 12,
            "z": 1
        },
        {
            "x": 4,
            "y": 12,
            "z": 0
        },
        {
            "x": -4,
            "y": 12,
            "z": 0
        }
    ],
    "LOSTargetPositions": [
        {
            "x": 0,
            "y": 12,
            "z": 1
        },
        {
            "x": 4,
            "y": 12,
            "z": 0
        },
        {
            "x": -4,
            "y": 12,
            "z": 0
        },
        {
            "x": 3,
            "y": 5,
            "z": 0
        },
        {
            "x": -3,
            "y": 5,
            "z": 0
        }
    ],
    "VariantName": "CPLT-C7",
    "ChassisTags": {
        "items": [],
        "tagSetSourceFile": ""
    },
    "StockRole": "Heavy Fire Support",
    "YangsThoughts": "The C7 variant of the Catapult is dangerous at all ranges. It carries enough missiles to hammer the enemy from afar, and its bank of energy weapons is unmatched."
}